ID name,GitHub URL, Python Version, env_file
DEV-learn-co-students@calculating-distance-lab-data-science-light-test,https://www.github.com/DEV-learn-co-students/calculating-distance-lab-data-science-light-test,3.6.1,requirements.txt
Chris35Wills@2016-01-06-bristol-testing,https://www.github.com/Chris35Wills/2016-01-06-bristol-testing,3.5.1,requirements.txt
learn-co-students@plotting-data-lab-data-science-pilot,https://www.github.com/learn-co-students/plotting-data-lab-data-science-pilot,3.6.5,requirements.txt
qut-dmrc@web-scraping-intro-workshop,https://www.github.com/qut-dmrc/web-scraping-intro-workshop,3.5.0,requirements.txt
kartik-nighania@Neural-Network_python,https://www.github.com/kartik-nighania/Neural-Network_python,3.6.3,requirements.txt
kjam@intro-to-ml,https://www.github.com/kjam/intro-to-ml,3.6.1,requirements.txt
birnstiel@twopoppy-demo,https://www.github.com/birnstiel/twopoppy-demo,3.6.3,requirements.txt
zhouxiaoxiang@oriole-docs,https://www.github.com/zhouxiaoxiang/oriole-docs,3.5.2,requirements.txt
bfogg001@Predictive-Analytics-for-Electric-Power-Distribution-Systems-Short-Course,https://www.github.com/bfogg001/Predictive-Analytics-for-Electric-Power-Distribution-Systems-Short-Course,3.6.6,requirements.txt
SaitoTsutomu@OptForPuzzle,https://www.github.com/SaitoTsutomu/OptForPuzzle,3.5.2,requirements.txt
nicolasmauhe@theorie_financiere,https://www.github.com/nicolasmauhe/theorie_financiere,3.7.2,environment.yml
ENPlummer@Surfs_UP,https://www.github.com/ENPlummer/Surfs_UP,3.6.3,requirements.txt
rjegankumar@exploring_US_gun_deaths,https://www.github.com/rjegankumar/exploring_US_gun_deaths,3.5.2,environment.yml
kevinbgunn@WRLC-Codeshop-APIs-OpenRefine-Tutorials,https://www.github.com/kevinbgunn/WRLC-Codeshop-APIs-OpenRefine-Tutorials,3.6.0,requirements.txt
norawit-u@thwthjw6t,https://www.github.com/norawit-u/thwthjw6t,3.6.4,environment.yml
