id_name,notebook_path,python_version,dataset_origin
quadhd@CarND-TensorFlow-Lab,original_repositories/quadhd@CarND-TensorFlow-Lab/solutions.ipynb,3.5,['snifferdog']
gyulat@Korszeru_matek,original_repositories/gyulat@Korszeru_matek/PCA_en.ipynb,3.6,['snifferdog']
henryyp@dand-3_investigate_data,original_repositories/henryyp@dand-3_investigate_data/investigate-a-dataset-template.ipynb,3.6,['snifferdog']
archclassroom@python-beginners,original_repositories/archclassroom@python-beginners/scripts.ipynb/remaining class time.ipynb,3.6,['snifferdog']
aaqibkhorasi@forecastAPI,original_repositories/aaqibkhorasi@forecastAPI/forecast_api.ipynb,3.6,['snifferdog']
tenkabuto@econ-notebooks,original_repositories/tenkabuto@econ-notebooks/base.ipynb,3.6,['snifferdog']
humphrit7@2016-06-29-testing,original_repositories/humphrit7@2016-06-29-testing/2016-06-29-testing/Assert.ipynb,3.5,['snifferdog']
chriscanal@BikeRental,original_repositories/chriscanal@BikeRental/.ipynb_checkpoints/DLND Your first neural network-checkpoint.ipynb,3.6,['snifferdog']
christyheaton@PyCon2018_GISTutorial,original_repositories/christyheaton@PyCon2018_GISTutorial/Notebook/01_Geopandas_Intro.ipynb,3.6,['snifferdog']
bonzanini@nlp-tutorial,original_repositories/bonzanini@nlp-tutorial/notebooks/04 text_classification_Evaluation.ipynb,3.5,['snifferdog']
bogordon86@Belly-Button-Biodiversity,original_repositories/bogordon86@Belly-Button-Biodiversity/Data_Engineering.ipynb,3.6,['snifferdog']
sfo-project@3D-flow-over-WindTidal-turbine-1DMomentum-turbulent,original_repositories/sfo-project@3D-flow-over-WindTidal-turbine-1DMomentum-turbulent/Star_CCM_Plus/README.ipynb,3.5,['snifferdog']
sfo-project@3D-flow-over-wings-turbulent,original_repositories/sfo-project@3D-flow-over-wings-turbulent/Fluent/README.ipynb,3.5,['snifferdog']
justinsowhat@scikit-learn-nlp-tutorial,original_repositories/justinsowhat@scikit-learn-nlp-tutorial/sklearn_tutorial_1.ipynb,3.5,['snifferdog']
central-ldn-data-sci@pushingTrees,original_repositories/central-ldn-data-sci@pushingTrees/.ipynb_checkpoints/theory-checkpoint.ipynb,3.6,['snifferdog']
sfo-project@2D-flow-over-heated-cylinder-laminar,original_repositories/sfo-project@2D-flow-over-heated-cylinder-laminar/Fluent/Simulation.ipynb,3.5,['snifferdog']
gdv@foundationsCS,original_repositories/gdv@foundationsCS/teachers/lecture-py-06-intro-to-pandas.ipynb,,['snifferdog']
taniamukherjee@Winter_Olympic_medals,original_repositories/taniamukherjee@Winter_Olympic_medals/Winter Olympics Create Database.ipynb,3.6,['snifferdog']
dougc333@aws_mlinfra,original_repositories/dougc333@aws_mlinfra/.ipynb_checkpoints/lambda-checkpoint.ipynb,3.6,['snifferdog']
cgsanchez@Practico_UBA_2017,original_repositories/cgsanchez@Practico_UBA_2017/Conductancia_Diatomica_IvsV_TD.ipynb,3.6,['snifferdog']
dusjads@cg-conspect,original_repositories/dusjads@cg-conspect/17_add_del_delaunay_slides.ipynb,3.5,['snifferdog']
central-ldn-data-sci@pushingTrees,original_repositories/central-ldn-data-sci@pushingTrees/theory.ipynb,3.6,['snifferdog']
saturnist@datavisualisation,original_repositories/saturnist@datavisualisation/MySourceFiles/parse.ipynb,3.5,['snifferdog']
lycheng@snippets,original_repositories/lycheng@snippets/scope-namespace.ipynb,3.6,['snifferdog']
geoffbacon@nlp-with-nltk-spacy,original_repositories/geoffbacon@nlp-with-nltk-spacy/solutions/05-Applications-solutions.ipynb,3.6,['snifferdog']
sijanonly@python-tutorial,original_repositories/sijanonly@python-tutorial/.ipynb_checkpoints/7. Control Flow-checkpoint.ipynb,3.5,['snifferdog']
LimberenceCheng@sentiment-network,original_repositories/LimberenceCheng@sentiment-network/Sentiment_Classification.ipynb,3.6,['snifferdog']
Johokiso-enshu@python_textbook,original_repositories/Johokiso-enshu@python_textbook/src/application1.ipynb,3.6,['snifferdog']
leopiney@c_divv,original_repositories/leopiney@c_divv/02-ecuaciones-diferenciales.ipynb,3.6,['snifferdog']
Bricoler@nlp_tutorial,original_repositories/Bricoler@nlp_tutorial/01-sentiment_analysis/06-CNN.ipynb,3.6,['snifferdog']
george-studenko@Bike-Sharing-Neural-Network,original_repositories/george-studenko@Bike-Sharing-Neural-Network/Neural_network.ipynb,3.6,['snifferdog']
neshdev@uom-intro_to_ds,original_repositories/neshdev@uom-intro_to_ds/Assignment 2.ipynb,3.5,['snifferdog']
bogordon86@Belly-Button-Biodiversity,original_repositories/bogordon86@Belly-Button-Biodiversity/.ipynb_checkpoints/Data_Engineering-checkpoint.ipynb,3.6,['snifferdog']
TeemuKoivisto@ids-week4-ex2-docker,original_repositories/TeemuKoivisto@ids-week4-ex2-docker/Exercise 1.ipynb,3.5,['snifferdog']
lezwon@Grokking_Deep_learning,original_repositories/lezwon@Grokking_Deep_learning/ch_05_mutiple_inputs.ipynb,3.6,['snifferdog']
Johokiso-enshu@python_textbook,original_repositories/Johokiso-enshu@python_textbook/src/tutorial1.ipynb,3.7,['snifferdog']
CogSciUOS@MachineLearningSheets,original_repositories/CogSciUOS@MachineLearningSheets/sheet02/sheet02solutions.ipynb,3.5,['snifferdog']
DomWeldon@5AAVC210,original_repositories/DomWeldon@5AAVC210/notebooks/Week 4 Practical Notebook (extras).ipynb,,['snifferdog']
AndreaSuckro@CANN,original_repositories/AndreaSuckro@CANN/tensorflow/mnist_basic_solution.ipynb,3.5,['snifferdog']
junfenglx@junfenglx.github.io-source,original_repositories/junfenglx@junfenglx.github.io-source/pelicanconf.ipynb,3.6,['snifferdog']
VinothRajasekar@DeepLearning,original_repositories/VinothRajasekar@DeepLearning/.ipynb_checkpoints/dlnd-your-first-neural-network-checkpoint.ipynb,3.6,['snifferdog']
SimonBiggs@MRS360-Lecture-Widgets,original_repositories/SimonBiggs@MRS360-Lecture-Widgets/vpythondemos/Gyroscope-Suspended.ipynb,3.5,['snifferdog']
ECaMorlaix-TSI-1718@RDM,original_repositories/ECaMorlaix-TSI-1718@RDM/EquerreKillan/Equerre+2+ALU.ipynb,3.6,['snifferdog']
ericECmorlaix@toto,original_repositories/ericECmorlaix@toto/MineCraft.ipynb,3.6,['snifferdog']
sfo-project@3D-flow-over-WindTidal-turbine-1DMomentum-turbulent,original_repositories/sfo-project@3D-flow-over-WindTidal-turbine-1DMomentum-turbulent/Star_CCM_Plus/Post_Process.ipynb,3.5,['snifferdog']
alexisdurieux@air_normand_pao,original_repositories/alexisdurieux@air_normand_pao/notebooks/PM/.ipynb_checkpoints/3-0-0. Réseaux récurrents avec séquences. (Longues séquences et modèles complexes)-checkpoint.ipynb,,['snifferdog']
markusschanta@talks,original_repositories/markusschanta@talks/2018-03 - JupyterLab - Full Stack Quants/notebooks/Fibonacci.ipynb,3.6,['snifferdog']
henchc@HTRC-Pre-Workshop,original_repositories/henchc@HTRC-Pre-Workshop/01-Python-Jupyter.ipynb,3.5,['snifferdog']
gdv@foundationsCS,original_repositories/gdv@foundationsCS/teachers/py-12-TED.ipynb,,['snifferdog']
ECaMorlaix-2SI-1718@CR,original_repositories/ECaMorlaix-2SI-1718@CR/Robotique/Alan_Collongues/Alan Collongues/Alan_Collongues/acquérir.ipynb,3.6,['snifferdog']
sterio-wang@Udacity-dlnd-bike-sharing-rides-prediction-project,original_repositories/sterio-wang@Udacity-dlnd-bike-sharing-rides-prediction-project/Your_first_neural_network.ipynb,3.6,['snifferdog']
learn-co-students@filter-readme-python-data-science-intro-000,original_repositories/learn-co-students@filter-readme-python-data-science-intro-000/index.ipynb,3.6,['snifferdog']
gdv@foundationsCS,original_repositories/gdv@foundationsCS/teachers/py-09-Apache.ipynb,,['snifferdog']
ENPlummer@Surfs_UP,original_repositories/ENPlummer@Surfs_UP/.ipynb_checkpoints/data_engineering-checkpoint.ipynb,3.6,['snifferdog']
AndreaSuckro@CANN,original_repositories/AndreaSuckro@CANN/keras/mnist.ipynb,3.5,['snifferdog']
CrispyCrafter@AudioNet,original_repositories/CrispyCrafter@AudioNet/SoundReview.ipynb,3.5,['snifferdog']
nuitrcs@crd-2017-numpy-workshop,original_repositories/nuitrcs@crd-2017-numpy-workshop/CRD NumPy Workshop.ipynb,3.6,['snifferdog']
HagenGaryP@Zero-to-deep-learning,original_repositories/HagenGaryP@Zero-to-deep-learning/course/5 Gradient Descent.ipynb,,['snifferdog']
norawit-u@thwthjw6t,original_repositories/norawit-u@thwthjw6t/tictactoe.ipynb,3.6,['snifferdog']
learn-dev-null@clt_demo,original_repositories/learn-dev-null@clt_demo/clt.ipynb,3.6,['snifferdog']
tloriaux@2016-06-29-testing,original_repositories/tloriaux@2016-06-29-testing/Assert.ipynb,3.5,['snifferdog']
SimonBiggs@MRS360-Lecture-Widgets,original_repositories/SimonBiggs@MRS360-Lecture-Widgets/vpythondemos/DipoleElectricField.ipynb,3.5,['snifferdog']
eads@hitchhikers-guide-to-apis-nicar17,original_repositories/eads@hitchhikers-guide-to-apis-nicar17/lesson.ipynb,3.5,['snifferdog']
knights-lab@foodworks,original_repositories/knights-lab@foodworks/notebooks/1_smoothing_splines.ipynb,,['snifferdog']
GeeHLee@deep_learning,original_repositories/GeeHLee@deep_learning/Your_first_neural_network.ipynb,3.5,['snifferdog']
Ratimon@neural-network-rental-ridership-predict,original_repositories/Ratimon@neural-network-rental-ridership-predict/.ipynb_checkpoints/DLND Your first neural network-checkpoint.ipynb,3.6,['snifferdog']
arpitworld@tensorflow-playground,original_repositories/arpitworld@tensorflow-playground/recommender_system/collaborative_filtering.ipynb,3.6,['snifferdog']
sherif-abdelkarim@AIND-RNN,original_repositories/sherif-abdelkarim@AIND-RNN/RNN_project.ipynb,3.6,['snifferdog']
SaitoTsutomu@opt4puzzle,original_repositories/SaitoTsutomu@opt4puzzle/OhNo.ipynb,3.6,['snifferdog']
saturnist@datavisualisation,original_repositories/saturnist@datavisualisation/test.ipynb,3.5,['snifferdog']
sijanonly@python-tutorial,original_repositories/sijanonly@python-tutorial/.ipynb_checkpoints/2. Python set up-checkpoint.ipynb,,['snifferdog']
SaitoTsutomu@OptForPuzzle,original_repositories/SaitoTsutomu@OptForPuzzle/え.ABCプレース.ipynb,3.5,['snifferdog']
Ujjwal-9@GAN-Generating-Digits,original_repositories/Ujjwal-9@GAN-Generating-Digits/.ipynb_checkpoints/GAN's-Digit -Generation-checkpoint.ipynb,,['snifferdog']
robdmc@stats_distributions_for_students,original_repositories/robdmc@stats_distributions_for_students/distributions.ipynb,3.6,['snifferdog']
ageron@tensorflow-safari-course,original_repositories/ageron@tensorflow-safari-course/09_organizing_code.ipynb,3.6,['snifferdog']
sijanonly@python-tutorial,original_repositories/sijanonly@python-tutorial/9. data structure and algorithm/.ipynb_checkpoints/Time Complexity Plotting-checkpoint.ipynb,3.5,['snifferdog']
bens-notes@Informatics-Year-2,original_repositories/bens-notes@Informatics-Year-2/ads/sequential_data_structures.ipynb,3.6,['snifferdog']
mapio@sinuous-violin,original_repositories/mapio@sinuous-violin/sinuous-violin.ipynb,3.6,['snifferdog']
DomWeldon@5AAVC210,original_repositories/DomWeldon@5AAVC210/notebooks/.ipynb_checkpoints/Week 5 Practical Notebook-checkpoint.ipynb,3.5,['snifferdog']
daniel-ufabc@bcc-ufabc,original_repositories/daniel-ufabc@bcc-ufabc/RepeticaoI.ipynb,3.5,['snifferdog']
oliver-sanford@2016-06-29-testing,original_repositories/oliver-sanford@2016-06-29-testing/Assert.ipynb,3.5,['snifferdog']
jtemporal@intro-folium,original_repositories/jtemporal@intro-folium/intro-folium.ipynb,3.6,['snifferdog']
mdalvi@financial-analysis-and-algo-trading,original_repositories/mdalvi@financial-analysis-and-algo-trading/numpy/numpy_notes.ipynb,3.6,['snifferdog']
chief1988@first-neural-network,original_repositories/chief1988@first-neural-network/Your_first_neural_network.ipynb,3.6,['snifferdog']
seanwiseman@Python-beyond-the-basics,original_repositories/seanwiseman@Python-beyond-the-basics/4_decorators.ipynb,3.6,['snifferdog']
deepSalva@bike_sharing,original_repositories/deepSalva@bike_sharing/bike_sharing.ipynb,3.6,['snifferdog']
rudrawrath@blockchain_school_test,original_repositories/rudrawrath@blockchain_school_test/Blockchain.ipynb,3.5,['snifferdog']
benjello@ppd-micro-simulations-and-public-policies,original_repositories/benjello@ppd-micro-simulations-and-public-policies/notebooks/14-python.ipynb,,['snifferdog']
wkelongws@CarND-TensorFlow-Lab,original_repositories/wkelongws@CarND-TensorFlow-Lab/solutions.ipynb,3.5,['snifferdog']
Dataweekends@python_libraries_for_ml_and_dl,original_repositories/Dataweekends@python_libraries_for_ml_and_dl/solutions_do_not_open/are_you_really_sure/are_you_really_really_sure/05_Test_your_skills_solution.ipynb,3.5,['snifferdog']
rzuccolo@rz-dlnd-bike-rental,original_repositories/rzuccolo@rz-dlnd-bike-rental/Bike Rental Ridership.ipynb,3.6,['snifferdog']
sisaza@informatica,original_repositories/sisaza@informatica/Unidad5/Unidad5.ipynb,3.6,['snifferdog']
SimonBiggs@MRS360-Lecture-Widgets,original_repositories/SimonBiggs@MRS360-Lecture-Widgets/vpythondemos/Bounce.ipynb,3.5,['snifferdog']
AndreaSuckro@CANN,original_repositories/AndreaSuckro@CANN/tensorflow/mnist_basic.ipynb,3.5,['snifferdog']
SaitoTsutomu@OptForPuzzle,original_repositories/SaitoTsutomu@OptForPuzzle/す.スリザーリンク.ipynb,3.5,['snifferdog']
pangeo-data@pangeo-tutorial-sea-2018,original_repositories/pangeo-data@pangeo-tutorial-sea-2018/notebooks/2.2.dask_schedulers.ipynb,3.6,['snifferdog']
enactdev@plotly-intro-jupyter,original_repositories/enactdev@plotly-intro-jupyter/completed/01_Waterfowl_by_year_in_Delaware.ipynb,3.6,['snifferdog']
bgroveben@coursera_python_fundamentals,original_repositories/bgroveben@coursera_python_fundamentals/Week_2.ipynb,3.5,['snifferdog']
SaitoTsutomu@OptForPuzzle,original_repositories/SaitoTsutomu@OptForPuzzle/の.ののぐらむ.ipynb,3.5,['snifferdog']
daniel-ufabc@bcc-ufabc,original_repositories/daniel-ufabc@bcc-ufabc/Unidade3.ipynb,3.5,['snifferdog']
bstempi@sjpwdg-pandas-presentation,original_repositories/bstempi@sjpwdg-pandas-presentation/04_exercise.ipynb,3.5,['snifferdog']
SaitoTsutomu@OptForPuzzle,original_repositories/SaitoTsutomu@OptForPuzzle/ふ.フィルマット.ipynb,3.5,['snifferdog']
alexisdurieux@air_normand_pao,original_repositories/alexisdurieux@air_normand_pao/notebooks/NO2/3-Copy1. Réseaux récurrents avec séquences.ipynb,3.5,['snifferdog']
LCGracia@Zero-To-DeepLearning,original_repositories/LCGracia@Zero-To-DeepLearning/course/5 Gradient Descent.ipynb,,['snifferdog']
anniecherk@scikit_learn_and_keras_demo_fall_2017,original_repositories/anniecherk@scikit_learn_and_keras_demo_fall_2017/Keras Demo- Binary.ipynb,3.5,['snifferdog']
austingould1@SafestState,original_repositories/austingould1@SafestState/.ipynb_checkpoints/functions-checkpoint.ipynb,3.6,['snifferdog']
fredelf@bike-sharing-nn-predictor,original_repositories/fredelf@bike-sharing-nn-predictor/Your_first_neural_network.ipynb,3.6,['snifferdog']
martinkersner@rnn-meetup,original_repositories/martinkersner@rnn-meetup/sum-binary-numbers.ipynb,3.6,['snifferdog']
sfo-project@2D-flow-over-airfoils-turbulent,original_repositories/sfo-project@2D-flow-over-airfoils-turbulent/Fluent/Post_Process.ipynb,3.5,['snifferdog']
archclassroom@python-beginners,original_repositories/archclassroom@python-beginners/scripts.ipynb,,['snifferdog']
pangeo-data@pangeo-tutorial-sea-2018,original_repositories/pangeo-data@pangeo-tutorial-sea-2018/notebooks/1.2.xarray-the-power-of-labels.ipynb,3.6,['snifferdog']
gdv@foundationsCS,original_repositories/gdv@foundationsCS/students/py-08-merging.ipynb,,['snifferdog']
sfo-project@3D-flow-over-wings-turbulent,original_repositories/sfo-project@3D-flow-over-wings-turbulent/Open_Foam/Post_Process.ipynb,3.5,['snifferdog']
CameronBoudreau@moneyball,original_repositories/CameronBoudreau@moneyball/.ipynb_checkpoints/moneyball-checkpoint.ipynb,3.5,['snifferdog']
archclassroom@python-beginners,original_repositories/archclassroom@python-beginners/to_sort/python-beginners session#1.ipynb,3.6,['snifferdog']
boileaum@notebook-mania2,original_repositories/boileaum@notebook-mania2/notebook-mania2.ipynb,3.6,['snifferdog']
sadhana1002@ClimaticAnalysis,original_repositories/sadhana1002@ClimaticAnalysis/.ipynb_checkpoints/ServerAPI-checkpoint.ipynb,3.6,['snifferdog']
cranmer@intro-exp-phys-II,original_repositories/cranmer@intro-exp-phys-II/misc/In-class-demo-prop-errors.ipynb,3.5,['snifferdog']
henchc@textxd-2017,original_repositories/henchc@textxd-2017/08-Word-Embeddings.ipynb,3.5,['snifferdog']
Bennoo@datagram,original_repositories/Bennoo@datagram/notebooks/Google FIT.ipynb,3.6,['snifferdog']
ray-dino@Test,original_repositories/ray-dino@Test/(Hands-on) How To Train Your Data - Logistic Regression.ipynb,,['snifferdog']
Dataweekends@python_libraries_for_ml_and_dl,original_repositories/Dataweekends@python_libraries_for_ml_and_dl/04_Keras.ipynb,3.5,['snifferdog']
gdv@foundationsCS,original_repositories/gdv@foundationsCS/students/ex-01-lists.ipynb,,['snifferdog']
HimanshuKumar111@DNLD_Bike-Sharing-Prediction-Challenge,original_repositories/HimanshuKumar111@DNLD_Bike-Sharing-Prediction-Challenge/.ipynb_checkpoints/Your_first_neural_network-checkpoint.ipynb,3.6,['snifferdog']
vivanraaj@Udacity_Deep_Learning_First_Neural_Network,original_repositories/vivanraaj@Udacity_Deep_Learning_First_Neural_Network/Your_first_neural_network.ipynb,3.6,['snifferdog']
vivanraaj@Udacity_Deep_Learning_First_Neural_Network,original_repositories/vivanraaj@Udacity_Deep_Learning_First_Neural_Network/.ipynb_checkpoints/Your_first_neural_network-checkpoint.ipynb,3.6,['snifferdog']
naoko@ml_notebooks,original_repositories/naoko@ml_notebooks/Recommendation System with LightFM.ipynb,3.5,['snifferdog']
jinjagit@Cryptography,original_repositories/jinjagit@Cryptography/.ipynb_checkpoints/HowTo-checkpoint.ipynb,3.6,['snifferdog']
SaitoTsutomu@OptForPuzzle,original_repositories/SaitoTsutomu@OptForPuzzle/ぬ.ぬりかべ.ipynb,3.5,['snifferdog']
Zhuikov@predator-prey,original_repositories/Zhuikov@predator-prey/notebooks/LifeModel.ipynb,3.5,['snifferdog']
SimonBiggs@MRS360-Lecture-Widgets,original_repositories/SimonBiggs@MRS360-Lecture-Widgets/Fluence.ipynb,3.5,['snifferdog']
SaitoTsutomu@OptForPuzzle,original_repositories/SaitoTsutomu@OptForPuzzle/ひ.美術館.ipynb,3.5,['snifferdog']
mdalvi@financial-analysis-and-algo-trading,original_repositories/mdalvi@financial-analysis-and-algo-trading/python_finance_fundamentals/finance_fundamentals_lecture_notes.ipynb,3.6,['snifferdog']
knights-lab@foodworks,original_repositories/knights-lab@foodworks/notebooks/5.1_bnlearn_warp_response.ipynb,,['snifferdog']
jorisvandenbossche@2016-VITO-jupyter-demo,original_repositories/jorisvandenbossche@2016-VITO-jupyter-demo/Jupyter presentation.ipynb,3.5,['snifferdog']
deathbeds@election,original_repositories/deathbeds@election/Maps.ipynb,3.6,['snifferdog']
seanwiseman@Python-beyond-the-basics,original_repositories/seanwiseman@Python-beyond-the-basics/5_functools_module.ipynb,3.6,['snifferdog']
sadhana1002@ClimaticAnalysis,original_repositories/sadhana1002@ClimaticAnalysis/.ipynb_checkpoints/database_engineering-checkpoint.ipynb,3.6,['snifferdog']
effa@ai-search-workshop,original_repositories/effa@ai-search-workshop/04-brute-force.ipynb,3.6,['snifferdog']
daniel-ufabc@bcc-ufabc,original_repositories/daniel-ufabc@bcc-ufabc/Condicionais.ipynb,3.5,['snifferdog']
dkarunakaran@dlnd-p1-first-nn,original_repositories/dkarunakaran@dlnd-p1-first-nn/.ipynb_checkpoints/Your_first_neural_network-checkpoint.ipynb,3.6,['snifferdog']
knights-lab@foodworks,original_repositories/knights-lab@foodworks/notebooks/4_build_numeric_dataframe.ipynb,,['snifferdog']
mdalvi@financial-analysis-and-algo-trading,original_repositories/mdalvi@financial-analysis-and-algo-trading/time_series_analysis/time_series_analysis_notes.ipynb,3.6,['snifferdog']
devRohanGarg@SentimentAnalysis,original_repositories/devRohanGarg@SentimentAnalysis/Sentiment Classification - Intro.ipynb,3.6,['snifferdog']
flsantos@udacity-project-your-first-neural-network,original_repositories/flsantos@udacity-project-your-first-neural-network/Your_first_neural_network.ipynb,3.6,['snifferdog']
conradthegray@numpy-100-solutions,original_repositories/conradthegray@numpy-100-solutions/solutions/exercise-024.ipynb,3.6,['snifferdog']
sfo-project@3D-flow-over-wings-turbulent,original_repositories/sfo-project@3D-flow-over-wings-turbulent/Common_Files/Physics.ipynb,3.5,['snifferdog']
SoirhcaZ@nlp-tutorial-master,original_repositories/SoirhcaZ@nlp-tutorial-master/notebooks/00 Environment Test.ipynb,3.5,['snifferdog']
netlogic@brets_first_neural_net_project,original_repositories/netlogic@brets_first_neural_net_project/.ipynb_checkpoints/Your_first_neural_network-checkpoint.ipynb,3.6,['snifferdog']
ageron@tensorflow-safari-course,original_repositories/ageron@tensorflow-safari-course/03_basics_collections_ex3.ipynb,3.6,['snifferdog']
Knutselbaar@e-liner,original_repositories/Knutselbaar@e-liner/design.ipynb,3.6,['snifferdog']
sijanonly@python-tutorial,original_repositories/sijanonly@python-tutorial/.ipynb_checkpoints/17 .File Handling-checkpoint.ipynb,,['snifferdog']
gdv@foundationsCS,original_repositories/gdv@foundationsCS/students/lecture-py-01-basics.ipynb,,['snifferdog']
knights-lab@foodworks,original_repositories/knights-lab@foodworks/notebooks/a_3_unifrac_distance_average.ipynb,,['snifferdog']
seoweon@dart_reports,original_repositories/seoweon@dart_reports/dart_xls.ipynb,3.6,['snifferdog']
ir4y@ml-coursera,original_repositories/ir4y@ml-coursera/task1/cats.ipynb,3.6,['snifferdog']
ir4y@ml-coursera,original_repositories/ir4y@ml-coursera/task3/smoothness.ipynb,3.6,['snifferdog']
sunnymarketingpdx@CarND-LeNet-Lab,original_repositories/sunnymarketingpdx@CarND-LeNet-Lab/LeNet-Lab.ipynb,3.5,['snifferdog']
HagenGaryP@Zero-to-deep-learning,original_repositories/HagenGaryP@Zero-to-deep-learning/course/6 Convolutional Neural Networks.ipynb,3.5,['snifferdog']
dynamicwebpaige@spacemath,original_repositories/dynamicwebpaige@spacemath/007_Solar_Electricity.ipynb,3.6,['snifferdog']
SALib@SATut,original_repositories/SALib@SATut/index.ipynb,3.7,['snifferdog']
austingould1@SafestState,original_repositories/austingould1@SafestState/accidents_to_sqlite.ipynb,3.6,['snifferdog']
knights-lab@foodworks,original_repositories/knights-lab@foodworks/notebooks/5.1_bnlearn_response.ipynb,,['snifferdog']
SALib@SATut,original_repositories/SALib@SATut/Using SA to Interrogate Models/DMDU_2019_Introduction_to_SALib.ipynb,3.7,['snifferdog']
gdv@foundationsCS,original_repositories/gdv@foundationsCS/teachers/lecture-py-10-concat-comprehension.ipynb,,['snifferdog']
AlexFridman@OptM,original_repositories/AlexFridman@OptM/task_7/convex_optimization.ipynb,3.5,['snifferdog']
NEXTCanada@NextAI-MachineLearning,original_repositories/NEXTCanada@NextAI-MachineLearning/04c - CholeskyDecomposition.ipynb,,['snifferdog']
widdowquinn@Teaching-Data-Visualisation,original_repositories/widdowquinn@Teaching-Data-Visualisation/exercises/grammar_of_graphics/grammar_of_graphics.ipynb,3.6,['snifferdog']
archclassroom@python-beginners,original_repositories/archclassroom@python-beginners/to_sort/old_ipynbs/Day3.ipynb,3.5,['snifferdog']
NighTurs@moscow-renovation-voting-2017,original_repositories/NighTurs@moscow-renovation-voting-2017/notebooks/01_initial_exploration.ipynb,3.6,['snifferdog']
pangeo-data@pangeo-tutorial-sea-2018,original_repositories/pangeo-data@pangeo-tutorial-sea-2018/notebooks/1.4.xarray-visualization.ipynb,3.6,['snifferdog']
jrios6@DLND-Neural-Networks,original_repositories/jrios6@DLND-Neural-Networks/Numpy Tutorial Notebook.ipynb,3.5,['snifferdog']
akaihola@vpython-jupyter-experiments,original_repositories/akaihola@vpython-jupyter-experiments/trails.ipynb,3.5,['snifferdog']
mdda@cnn-speech-mnist,original_repositories/mdda@cnn-speech-mnist/SpeechSynthesis_Test.ipynb,3.5,['snifferdog']
angelsonly@ML-for-InfoSec,original_repositories/angelsonly@ML-for-InfoSec/Check_environment.ipynb,3.5,['snifferdog']
neshdev@uom-intro_to_ds,original_repositories/neshdev@uom-intro_to_ds/Assignment 4.ipynb,3.5,['snifferdog']
seanwiseman@Python-beyond-the-basics,original_repositories/seanwiseman@Python-beyond-the-basics/2_collections_module.ipynb,3.6,['snifferdog']
gdv@foundationsCS,original_repositories/gdv@foundationsCS/students/py-05-groupby.ipynb,,['snifferdog']
jorcus@AIND-NLP,original_repositories/jorcus@AIND-NLP/text_processing.ipynb,3.6,['snifferdog']
think-data@first-neural-network,original_repositories/think-data@first-neural-network/.ipynb_checkpoints/Untitled-checkpoint.ipynb,3.6,['snifferdog']
faisalburhanudin@mnist,original_repositories/faisalburhanudin@mnist/simple_convnet.ipynb,3.6,['snifferdog']
gregn610@python-katas,original_repositories/gregn610@python-katas/src/Kata 04 Data Munging - three.ipynb,3.5,['snifferdog']
HsKA-ThermalFluiddynamics@NSS-1,original_repositories/HsKA-ThermalFluiddynamics@NSS-1/PythonTutorial.ipynb,3.5,['snifferdog']
jrad77@CarND-TensorFlow-Lab,original_repositories/jrad77@CarND-TensorFlow-Lab/solutions.ipynb,3.5,['snifferdog']
nicolasmauhe@theorie_financiere,original_repositories/nicolasmauhe@theorie_financiere/Partie_1.ipynb,3.7,['snifferdog']
ENPlummer@Surfs_UP,original_repositories/ENPlummer@Surfs_UP/.ipynb_checkpoints/climate_analysis-checkpoint.ipynb,3.6,['snifferdog']
rjegankumar@exploring_US_gun_deaths,original_repositories/rjegankumar@exploring_US_gun_deaths/gun_deaths.ipynb,3.5,['snifferdog']
kevinbgunn@WRLC-Codeshop-APIs-OpenRefine-Tutorials,original_repositories/kevinbgunn@WRLC-Codeshop-APIs-OpenRefine-Tutorials/rest_apis/2-working_with_JSON.ipynb,3.6,['snifferdog']
norawit-u@thwthjw6t,original_repositories/norawit-u@thwthjw6t/.ipynb_checkpoints/Untitled2-checkpoint.ipynb,,['snifferdog']
kmader_finding-lungs-in-ct-data,artifacts/relancer/relancer-exp/original_notebooks/kmader_finding-lungs-in-ct-data/keras-unet.ipynb,3.6,['relancer']
pavansubhasht_ibm-hr-analytics-attrition-dataset,artifacts/relancer/relancer-exp/original_notebooks/pavansubhasht_ibm-hr-analytics-attrition-dataset/simple-logistic-regression-for-employee-attrition.ipynb,3.6,['relancer']
wenruliu_adult-income-dataset,artifacts/relancer/relancer-exp/original_notebooks/wenruliu_adult-income-dataset/income-prediction-using-multi-model-and-eda.ipynb,3.6,['relancer']
shrutimechlearn_churn-modelling,artifacts/relancer/relancer-exp/original_notebooks/shrutimechlearn_churn-modelling/bank-customers-churn-ann.ipynb,3.6,['relancer']
primaryobjects_voicegender,artifacts/relancer/relancer-exp/original_notebooks/primaryobjects_voicegender/artificial-neural-network-to-classify-voice.ipynb,3.6,['relancer']
joniarroba_noshowappointments,artifacts/relancer/relancer-exp/original_notebooks/joniarroba_noshowappointments/from-eda-to-modeling.ipynb,3.6,['relancer']
abcsds_pokemon,artifacts/relancer/relancer-exp/original_notebooks/abcsds_pokemon/pokemon-classification-and-smote-for-imbalance.ipynb,3.6,['relancer']
lumins_settlers-of-catan-games,artifacts/relancer/relancer-exp/original_notebooks/lumins_settlers-of-catan-games/data-exploration-simple-rf-model.ipynb,3.6,['relancer']
pavansubhasht_ibm-hr-analytics-attrition-dataset,artifacts/relancer/relancer-exp/original_notebooks/pavansubhasht_ibm-hr-analytics-attrition-dataset/imbalanceddata-predictivemodelling-by-ibm-dataset.ipynb,3.6,['relancer']
aljarah_xAPI-Edu-Data,artifacts/relancer/relancer-exp/original_notebooks/aljarah_xAPI-Edu-Data/predicting-student-academic-performance.ipynb,3.6,['relancer']
adammaus_predicting-churn-for-bank-customers,artifacts/relancer/relancer-exp/original_notebooks/adammaus_predicting-churn-for-bank-customers/kernel3bed9143b3.ipynb,3.6,['relancer']
kabure_german-credit-data-with-risk,artifacts/relancer/relancer-exp/original_notebooks/kabure_german-credit-data-with-risk/german-credit-analysis-a-risk-perspective.ipynb,3.6,['relancer']
deadskull7_fer2013,artifacts/relancer/relancer-exp/original_notebooks/deadskull7_fer2013/fer-2013-notebook.ipynb,3.6,['relancer']
aakash50897_churn-modellingcsv,artifacts/relancer/relancer-exp/original_notebooks/aakash50897_churn-modellingcsv/bank-churning-model-using-artififcal-neural-net.ipynb,3.6,['relancer']
sammy123_lower-back-pain-symptoms-dataset,artifacts/relancer/relancer-exp/original_notebooks/sammy123_lower-back-pain-symptoms-dataset/lower-back-pain-symptoms-smote-parameter-tuning.ipynb,3.6,['relancer']
barelydedicated_bank-customer-churn-modeling,artifacts/relancer/relancer-exp/original_notebooks/barelydedicated_bank-customer-churn-modeling/kaggle-bank-turnover-dataset-churnnochurn-dl.ipynb,3.6,['relancer']
rtatman_did-it-rain-in-seattle-19482017,artifacts/relancer/relancer-exp/original_notebooks/rtatman_did-it-rain-in-seattle-19482017/seattle-rain-prediction.ipynb,3.6,['relancer']
blastchar_telco-customer-churn,artifacts/relancer/relancer-exp/original_notebooks/blastchar_telco-customer-churn/churn-model-using-random-forest-vsm-and-ann.ipynb,3.6,['relancer']
neuromusic_avocado-prices,artifacts/relancer/relancer-exp/original_notebooks/neuromusic_avocado-prices/taller-utp-2019-julio.ipynb,3.6,['relancer']
harlfoxem_housesalesprediction,artifacts/relancer/relancer-exp/original_notebooks/harlfoxem_housesalesprediction/housepricingknn.ipynb,3.6,['relancer']
utathya_imdb-review-dataset,artifacts/relancer/relancer-exp/original_notebooks/utathya_imdb-review-dataset/kernelca3a6fa0c9.ipynb,3.6,['relancer']
blastchar_telco-customer-churn,artifacts/relancer/relancer-exp/original_notebooks/blastchar_telco-customer-churn/insightful-eda-churn-customers-models-pipeline.ipynb,3.6,['relancer']
shivam2503_diamonds,artifacts/relancer/relancer-exp/original_notebooks/shivam2503_diamonds/types-of-regression-and-stats-in-depth.ipynb,3.6,['relancer']
piyushgoyal443_red-wine-dataset,artifacts/relancer/relancer-exp/original_notebooks/piyushgoyal443_red-wine-dataset/quality-of-red-wine-with-different-classifiers.ipynb,3.6,['relancer']
aljarah_xAPI-Edu-Data,artifacts/relancer/relancer-exp/original_notebooks/aljarah_xAPI-Edu-Data/decisiontree-and-randomforest.ipynb,3.6,['relancer']
